^C:\USERS\MARTIN\DOCUMENTS\VISUAL STUDIO 2012\PROJECTS\PROJEKT EULER\2 FIBONNACI\FIBONNACI\FIBONNACI\DEBUG\FIBONNACI.OBJ|C:\USERS\MARTIN\DOCUMENTS\VISUAL STUDIO 2012\PROJECTS\PROJEKT EULER\2 FIBONNACI\FIBONNACI\FIBONNACI\DEBUG\STDAFX.OBJ
/OUT:"C:\USERS\MARTIN\DOCUMENTS\VISUAL STUDIO 2012\PROJECTS\PROJEKT EULER\2 FIBONNACI\FIBONNACI\DEBUG\FIBONNACI.EXE" /INCREMENTAL /NOLOGO kernel32.lib user32.lib gdi32.lib winspool.lib comdlg32.lib advapi32.lib shell32.lib ole32.lib oleaut32.lib uuid.lib odbc32.lib odbccp32.lib /MANIFEST /MANIFESTUAC:"level='asInvoker' uiAccess='false'" /manifest:embed /DEBUG /PDB:"C:\USERS\MARTIN\DOCUMENTS\VISUAL STUDIO 2012\PROJECTS\PROJEKT EULER\2 FIBONNACI\FIBONNACI\DEBUG\FIBONNACI.PDB" /SUBSYSTEM:CONSOLE /TLBID:1 /DYNAMICBASE /NXCOMPAT /IMPLIB:"C:\USERS\MARTIN\DOCUMENTS\VISUAL STUDIO 2012\PROJECTS\PROJEKT EULER\2 FIBONNACI\FIBONNACI\DEBUG\FIBONNACI.LIB" /MACHINE:X86 DEBUG\FIBONNACI.OBJDEBUG\STDAFX.OBJ
^C:\USERS\MARTIN\GOOGLE DRIVE\C++\PROJECT EULER\PROJEKT EULER\2 FIBONNACI\FIBONNACI\FIBONNACI\DEBUG\FIBONNACI.OBJ|C:\USERS\MARTIN\GOOGLE DRIVE\C++\PROJECT EULER\PROJEKT EULER\2 FIBONNACI\FIBONNACI\FIBONNACI\DEBUG\STDAFX.OBJ
/OUT:"C:\USERS\MARTIN\GOOGLE DRIVE\C++\PROJECT EULER\PROJEKT EULER\2 FIBONNACI\FIBONNACI\DEBUG\FIBONNACI.EXE" /INCREMENTAL /NOLOGO kernel32.lib user32.lib gdi32.lib winspool.lib comdlg32.lib advapi32.lib shell32.lib ole32.lib oleaut32.lib uuid.lib odbc32.lib odbccp32.lib /MANIFEST /MANIFESTUAC:"level='asInvoker' uiAccess='false'" /manifest:embed /DEBUG /PDB:"C:\USERS\MARTIN\GOOGLE DRIVE\C++\PROJECT EULER\PROJEKT EULER\2 FIBONNACI\FIBONNACI\DEBUG\FIBONNACI.PDB" /SUBSYSTEM:CONSOLE /TLBID:1 /DYNAMICBASE /NXCOMPAT /IMPLIB:"C:\USERS\MARTIN\GOOGLE DRIVE\C++\PROJECT EULER\PROJEKT EULER\2 FIBONNACI\FIBONNACI\DEBUG\FIBONNACI.LIB" /MACHINE:X86 DEBUG\FIBONNACI.OBJDEBUG\STDAFX.OBJ
